Moccasin Measles Improved Visualisation
…
cat("\n── Step 0: merged_df ──\n")

── Step 0: merged_df ──

print(glimpse(merged_df))

Rows: 51
Columns: 5
$ state           <chr> "Alabama", "Alaska", "Arizona", "Arkansas", "Californi…
$ population      <dbl> 5157699, 740133, 7582384, 3088354, 39431263, 5957493, …
$ confirmed_cases <dbl> 0, 3, 4, 8, 15, 15, 0, 0, 1, 3, 5, 2, 0, 10, 8, 3, 78,…
$ severity        <dbl> 0.00, 0.41, 0.05, 0.26, 0.04, 0.25, 0.00, 0.00, 0.14, …
$ severity_bucket <chr> NA, "1", "1", "1", "1", "1", NA, NA, "1", "1", "1", "1…
# A tibble: 51 × 5
   state                population confirmed_cases severity severity_bucket
   <chr>                     <dbl>           <dbl>    <dbl> <chr>          
 1 Alabama                 5157699               0     0    <NA>           
 2 Alaska                   740133               3     0.41 1              
 3 Arizona                 7582384               4     0.05 1              
 4 Arkansas                3088354               8     0.26 1              
 5 California             39431263              15     0.04 1              
 6 Colorado                5957493              15     0.25 1              
 7 Connecticut             3675069               0     0    <NA>           
 8 Delaware                1051917               0     0    <NA>           
 9 District of Columbia     702250               1     0.14 1              
10 Florida                23372215               3     0.01 1              
# ℹ 41 more rows
…
